{
  "name": "salderma-httpproxy",
  "version": "0.1.0",
  "author": "Sean Alderman",
  "summary": "",
  "license": "Apache-2.0",
  "source": "",
  "dependencies": [
    {"name": "puppetlabs/stdlib", "version_requirement": ">= 4.25.1 < 5.0.0"},
    {"name": "puppetlabs/inifile", "version_requirement": ">= 2.3.0 < 3.0.0"}
  ],
  "operatingsystem_support": [
    {
      "operatingsystem": "CentOS",
      "operatingsystemrelease": [
        "7"
      ]
    },
    {
      "operatingsystem": "OracleLinux",
      "operatingsystemrelease": [
        "7"
      ]
    },
    {
      "operatingsystem": "RedHat",
      "operatingsystemrelease": [
        "7"
      ]
    },
    {
      "operatingsystem": "Scientific",
      "operatingsystemrelease": [
        "7"
      ]
    },
    {
      "operatingsystem": "Fedora",
      "operatingsystemrelease": [
        "25"
      ]
    }
  ],
  "requirements": [
    {
      "name": "puppet",
      "version_requirement": ">= 4.7.0 < 6.0.0"
    }
  ],
  "pdk-version": "1.6.1",
  "template-url": "https://github.com/puppetlabs/pdk-templates",
  "template-ref": "heads/master-0-g0657063"
}
